[2019-06-28 17:47:33] main.ERROR: SQL Error: Unknown column 'email' in 'field list' [] []
[2019-06-28 17:47:33] main.ERROR: SQL Query: INSERT INTO `users` (`email`,`username`,`password`,`imagePath`) VALUES ('hang123@hang.com', 'hang', 'sanYue26', 'uploads/customer-thinking_1.jpg') [] []
[2019-06-28 17:55:04] main.ERROR: SQL Error: Duplicate entry 'hang' for key 'username' [] []
[2019-06-28 17:55:04] main.ERROR: SQL Query: INSERT INTO `users` (`username`,`password`,`imagePath`) VALUES ('hang', 'sanYue26', 'uploads/customer-thinking_3.jpg') [] []
[2019-06-28 17:58:34] main.ERROR: SQL Error: Duplicate entry 'Jerry' for key 'username' [] []
[2019-06-28 17:58:34] main.ERROR: SQL Query: INSERT INTO `users` (`username`,`password`,`imagePath`) VALUES ('Jerry', 'sanYue26', 'uploads/customer-thinking_6.jpg') [] []
[2019-06-28 18:03:10] main.ERROR: SQL Error: Unknown column 'email' in 'where clause' [] []
[2019-06-28 18:03:10] main.ERROR: SQL Query: SELECT * FROM users WHERE email='hang123@hang.com' [] []
[2019-06-28 18:11:27] main.ERROR: SQL Error: Table 'quiz2slimshout17.products' doesn't exist [] []
[2019-06-28 18:11:27] main.ERROR: SQL Query: INSERT INTO `products` (`message`,`authorId`) VALUES ('gghjjk', '1') [] []
[2019-06-29 17:28:08] main.ERROR: SQL Error: Cannot add or update a child row: a foreign key constraint fails (`quiz2slimshout17`.`shouts`, CONSTRAINT `shouts_ibfk_1` FOREIGN KEY (`authorId`) REFERENCES `users` (`id`)) [] []
[2019-06-29 17:28:08] main.ERROR: SQL Query: INSERT INTO `shouts` (`message`,`authorId`) VALUES ('jjkll', '2') [] []
[2019-06-29 17:29:39] main.ERROR: SQL Error: Cannot add or update a child row: a foreign key constraint fails (`quiz2slimshout17`.`shouts`, CONSTRAINT `shouts_ibfk_1` FOREIGN KEY (`authorId`) REFERENCES `users` (`id`)) [] []
[2019-06-29 17:29:39] main.ERROR: SQL Query: INSERT INTO `shouts` (`authorId`,`message`) VALUES ('2', 'jjkll') [] []
[2019-06-29 17:29:43] main.ERROR: SQL Error: Cannot add or update a child row: a foreign key constraint fails (`quiz2slimshout17`.`shouts`, CONSTRAINT `shouts_ibfk_1` FOREIGN KEY (`authorId`) REFERENCES `users` (`id`)) [] []
[2019-06-29 17:29:43] main.ERROR: SQL Query: INSERT INTO `shouts` (`authorId`,`message`) VALUES ('2', 'jjkll') [] []
